{
  "Comment.nvim": { "branch": "master", "commit": "418d3117dab2f54c4340ea73e0070dd78fc81753" },
  "LuaSnip": { "branch": "master", "commit": "58fbfc627a93281a77f7d161d4ff702e639677b1" },
  "friendly-snippets": { "branch": "main", "commit": "1645e7cd98ed99e766c84ab3cf13a1612c77dcee" },
  "gitsigns.nvim": { "branch": "main", "commit": "5f1451ea7d9a9005b3f0bedeab20cef7a4c65993" },
  "lazy.nvim": { "branch": "main", "commit": "e916f41df26e33b01f1b3ebe28881090da3a7281" },
  "neogit": { "branch": "master", "commit": "089d388876a535032ac6a3f80e19420f09e4ddda" },
  "noctis.nvim": { "branch": "main", "commit": "fb0155251b262d2422123ebedba441eef6904e95" },
  "nvim-dap": { "branch": "master", "commit": "82e98f340cf5183e1c8743a3986c5b2e8705063b" },
  "nvim-dap-ui": { "branch": "master", "commit": "110193102b4840be8bda6eb2358367026145ae3a" },
  "nvim-dap-virtual-text": { "branch": "master", "commit": "8db23ea51203b5f00ad107a0cef7e0b2d7a0476c" },
  "nvim-lspconfig": { "branch": "master", "commit": "649137cbc53a044bffde36294ce3160cb18f32c7" },
  "nvim-treesitter": { "branch": "master", "commit": "b44871afb59e456bbff4113e416405c06c991cf5" },
  "nvim-ts-context-commentstring": { "branch": "main", "commit": "a0f89563ba36b3bacd62cf967b46beb4c2c29e52" },
  "playground": { "branch": "master", "commit": "c481c660fa903a0e295902b1765ecfbd6e76a556" },
  "plenary.nvim": { "branch": "master", "commit": "9a0d3bf7b832818c042aaf30f692b081ddd58bd9" },
  "telescope-dap.nvim": { "branch": "master", "commit": "313d2ea12ae59a1ca51b62bf01fc941a983d9c9c" },
  "telescope-fzf-native.nvim": { "branch": "main", "commit": "580b6c48651cabb63455e97d7e131ed557b8c7e2" },
  "telescope-live-grep-args.nvim": { "branch": "master", "commit": "7de3baef1ec4fb77f7a8195fe87bebd513244b6a" },
  "telescope.nvim": { "branch": "master", "commit": "203bf5609137600d73e8ed82703d6b0e320a5f36" },
  "undotree": { "branch": "master", "commit": "1a23ea84bd02c34f50d8e10a8b4bfc89597ffe4e" }
}